4 Árboles de decisión – Pácticas de Aprendizaje Automático con Julia
…
Evaluar el modelo mediante validación cruzada estratificada usando las métricas de la pérdida de entropía cruzada, la matriz de confusión, la tasa de verdaderos positivos, la tasa de verdaderos negativos, el valor predictivo positivo, el valor predictivo negativo y la precisión. ¿Es un buen modelo?

Solución

evaluate(arbol, X, y, resampling = StratifiedCV(rng = 123), measures = [cross_entropy, confusion_matrix, true_positive_rate, true_negative_rate, ppv, npv, accuracy])

Evaluating over 6 folds:  83%[====================>    ]  ETA: 0:00:00Evaluating over 6 folds: 100%[=========================] Time: 0:00:00

PerformanceEvaluation object with these fields:
  model, measure, operation,
  measurement, per_fold, per_observation,
  fitted_params_per_fold, report_per_fold,
  train_test_rows, resampling, repeats
Extract:
┌───┬──────────────────────────┬──────────────┬─────────────────────────────────
│   │ measure                  │ operation    │ measurement                    ⋯
├───┼──────────────────────────┼──────────────┼─────────────────────────────────
│ A │ LogLoss(                 │ predict      │ 0.375                          ⋯
│   │   tol = 2.22045e-16)     │              │                                ⋯
│ B │ ConfusionMatrix(         │ predict_mode │ ConfusionMatrix{2}([3821534 78 ⋯
│   │   levels = nothing,      │              │                                ⋯
│   │   perm = nothing,        │              │                                ⋯
│   │   rev = nothing,         │              │                                ⋯
│   │   checks = true)         │              │                                ⋯
│ C │ TruePositiveRate(        │ predict_mode │ 0.128                          ⋯
│   │   levels = nothing,      │              │                                ⋯
│   │   rev = nothing,         │              │                                ⋯
│   │   checks = true)         │              │                                ⋯
│ D │ TrueNegativeRate(        │ predict_mode │ 1.0                            ⋯
│   │   levels = nothing,      │              │                                ⋯
│   │   rev = nothing,         │              │                                ⋯
│   │   checks = true)         │              │                                ⋯
│ E │ PositivePredictiveValue( │ predict_mode │ 0.994                          ⋯
│   │   levels = nothing,      │              │                                ⋯
│   │   rev = nothing,         │              │                                ⋯
│   │   checks = true)         │              │                                ⋯
│ F │ NegativePredictiveValue( │ predict_mode │ 0.83                           ⋯
│   │   levels = nothing,      │              │                                ⋯
│   │   rev = nothing,         │              │                                ⋯
│ ⋮ │            ⋮             │      ⋮       │                        ⋮       ⋱
└───┴──────────────────────────┴──────────────┴─────────────────────────────────
                                                     1 column and 2 rows omitted
…
